%YAML 1.1
%TAG !u! tag:unity3d.com,2011:
--- !u!1045 &1
EditorBuildSettings:
  m_ObjectHideFlags: 0
  serializedVersion: 2
  m_Scenes:
  - enabled: 0
    path: 
    guid: 00000000000000000000000000000000
  - enabled: 1
    path: Assets/Scenes/Main_Menu.unity
    guid: 570c30f0217967944b63a9edc815ddb7
  - enabled: 1
    path: Assets/Scenes/Level_Select.unity
    guid: a018034708c48d54eb55dab5cfc1e4bb
  - enabled: 1
    path: Assets/Scenes/Level1.unity
    guid: 5d9f13a7a629acd40b9fc4d10d2a36e8
  - enabled: 1
    path: Assets/Scenes/Level2.unity
    guid: dd4340991b3c99246a8b877517b904aa
  - enabled: 1
    path: Assets/Scenes/Level3.unity
    guid: a383982af8c42014d88fb654e1058d26
  - enabled: 1
    path: Assets/Scenes/Win.unity
    guid: c0d105ae20abce745b4e9a82e382101d
  m_configObjects: {}
